[
    {
        "key": "group_574ed78c2950c",
        "title": "Amenity",
        "fields": [
            {
                "key": "field_574ed7a07f076",
                "label": "Amenity Image",
                "name": "amenity_image",
                "type": "image",
                "instructions": "",
                "required": 0,
                "conditional_logic": 0,
                "wrapper": {
                    "width": "",
                    "class": "",
                    "id": ""
                },
                "return_format": "url",
                "preview_size": "thumbnail",
                "library": "all",
                "min_width": "",
                "min_height": "",
                "min_size": "",
                "max_width": "",
                "max_height": "",
                "max_size": "",
                "mime_types": ""
            }
        ],
        "location": [
            [
                {
                    "param": "taxonomy",
                    "operator": "==",
                    "value": "amenities"
                }
            ]
        ],
        "menu_order": 0,
        "position": "normal",
        "style": "default",
        "label_placement": "top",
        "instruction_placement": "label",
        "hide_on_screen": "",
        "active": 1,
        "description": ""
    },
    {
        "key": "group_574ed582a0607",
        "title": "FAQs",
        "fields": [
            {
                "key": "field_574ed5ab19f4b",
                "label": "FAQ",
                "name": "faq",
                "type": "repeater",
                "instructions": "",
                "required": 0,
                "conditional_logic": 0,
                "wrapper": {
                    "width": "",
                    "class": "",
                    "id": ""
                },
                "collapsed": "",
                "min": "",
                "max": "",
                "layout": "row",
                "button_label": "Add Row",
                "sub_fields": [
                    {
                        "key": "field_574ed5e119f4c",
                        "label": "Faq Question",
                        "name": "faq_question",
                        "type": "text",
                        "instructions": "",
                        "required": 0,
                        "conditional_logic": 0,
                        "wrapper": {
                            "width": "",
                            "class": "",
                            "id": ""
                        },
                        "default_value": "",
                        "placeholder": "",
                        "prepend": "",
                        "append": "",
                        "maxlength": "",
                        "readonly": 0,
                        "disabled": 0
                    },
                    {
                        "key": "field_574ed5f919f4d",
                        "label": "Faq Answer",
                        "name": "faq_answer",
                        "type": "textarea",
                        "instructions": "",
                        "required": 0,
                        "conditional_logic": 0,
                        "wrapper": {
                            "width": "",
                            "class": "",
                            "id": ""
                        },
                        "default_value": "",
                        "placeholder": "",
                        "maxlength": "",
                        "rows": "",
                        "new_lines": "wpautop",
                        "readonly": 0,
                        "disabled": 0
                    }
                ]
            }
        ],
        "location": [
            [
                {
                    "param": "post_type",
                    "operator": "==",
                    "value": "attractions"
                }
            ]
        ],
        "menu_order": 0,
        "position": "normal",
        "style": "default",
        "label_placement": "top",
        "instruction_placement": "label",
        "hide_on_screen": "",
        "active": 1,
        "description": ""
    },
    {
        "key": "group_5750f2a8b6753",
        "title": "General Information",
        "fields": [
            {
                "key": "field_5750f2a8d66c7",
                "label": "Phone Number",
                "name": "phone_number",
                "type": "text",
                "instructions": "",
                "required": 0,
                "conditional_logic": 0,
                "wrapper": {
                    "width": "",
                    "class": "",
                    "id": ""
                },
                "default_value": "",
                "placeholder": "",
                "prepend": "",
                "append": "",
                "maxlength": "",
                "readonly": 0,
                "disabled": 0
            },
            {
                "key": "field_5750f2a8d6aa6",
                "label": "Website URL",
                "name": "website_url",
                "type": "text",
                "instructions": "",
                "required": 0,
                "conditional_logic": 0,
                "wrapper": {
                    "width": "",
                    "class": "",
                    "id": ""
                },
                "default_value": "",
                "placeholder": "",
                "prepend": "",
                "append": "",
                "maxlength": "",
                "readonly": 0,
                "disabled": 0
            }
        ],
        "location": [
            [
                {
                    "param": "post_type",
                    "operator": "==",
                    "value": "attractions"
                }
            ]
        ],
        "menu_order": 0,
        "position": "side",
        "style": "default",
        "label_placement": "top",
        "instruction_placement": "label",
        "hide_on_screen": "",
        "active": 1,
        "description": ""
    },
    {
        "key": "group_5750f7e2adaca",
        "title": "Hours of Operation",
        "fields": [
            {
                "key": "field_5750f7e2cc455",
                "label": "Monday",
                "name": "monday",
                "type": "checkbox",
                "instructions": "",
                "required": 0,
                "conditional_logic": 0,
                "wrapper": {
                    "width": "33.333333333",
                    "class": "",
                    "id": ""
                },
                "choices": {
                    "1": "Open"
                },
                "default_value": [

                ],
                "layout": "vertical",
                "toggle": 0
            },
            {
                "key": "field_5750f7e2cc821",
                "label": "From",
                "name": "monday_from",
                "type": "text",
                "instructions": "",
                "required": 0,
                "conditional_logic": 0,
                "wrapper": {
                    "width": "33.333333333",
                    "class": "",
                    "id": ""
                },
                "default_value": "",
                "placeholder": "",
                "prepend": "",
                "append": "",
                "maxlength": "",
                "readonly": 0,
                "disabled": 0
            },
            {
                "key": "field_5750f7e2ccbf2",
                "label": "To",
                "name": "monday_to",
                "type": "text",
                "instructions": "",
                "required": 0,
                "conditional_logic": 0,
                "wrapper": {
                    "width": "33.333333333",
                    "class": "",
                    "id": ""
                },
                "default_value": "",
                "placeholder": "",
                "prepend": "",
                "append": "",
                "maxlength": "",
                "readonly": 0,
                "disabled": 0
            },
            {
                "key": "field_5750f7e2cd00e",
                "label": "Tuesday",
                "name": "tuesday",
                "type": "checkbox",
                "instructions": "",
                "required": 0,
                "conditional_logic": 0,
                "wrapper": {
                    "width": "33.333333333",
                    "class": "",
                    "id": ""
                },
                "choices": {
                    "1": "Open"
                },
                "default_value": [

                ],
                "layout": "vertical",
                "toggle": 0
            },
            {
                "key": "field_5750f7e2cd3ff",
                "label": "From",
                "name": "tuesday_from",
                "type": "text",
                "instructions": "",
                "required": 0,
                "conditional_logic": 0,
                "wrapper": {
                    "width": "33.333333333",
                    "class": "",
                    "id": ""
                },
                "default_value": "",
                "placeholder": "",
                "prepend": "",
                "append": "",
                "maxlength": "",
                "readonly": 0,
                "disabled": 0
            },
            {
                "key": "field_5750f7e2cd7dc",
                "label": "To",
                "name": "tuesday_to",
                "type": "text",
                "instructions": "",
                "required": 0,
                "conditional_logic": 0,
                "wrapper": {
                    "width": "33.333333333",
                    "class": "",
                    "id": ""
                },
                "default_value": "",
                "placeholder": "",
                "prepend": "",
                "append": "",
                "maxlength": "",
                "readonly": 0,
                "disabled": 0
            },
            {
                "key": "field_5750f8fef4924",
                "label": "Wednesday",
                "name": "wednesday",
                "type": "checkbox",
                "instructions": "",
                "required": 0,
                "conditional_logic": 0,
                "wrapper": {
                    "width": "33.333333333",
                    "class": "",
                    "id": ""
                },
                "choices": {
                    "1": "Open"
                },
                "default_value": [

                ],
                "layout": "vertical",
                "toggle": 0
            },
            {
                "key": "field_5750f906f4925",
                "label": "From",
                "name": "wednesday_from",
                "type": "text",
                "instructions": "",
                "required": 0,
                "conditional_logic": 0,
                "wrapper": {
                    "width": "33.333333333",
                    "class": "",
                    "id": ""
                },
                "default_value": "",
                "placeholder": "",
                "prepend": "",
                "append": "",
                "maxlength": "",
                "readonly": 0,
                "disabled": 0
            },
            {
                "key": "field_5750f90af4926",
                "label": "To",
                "name": "wednesday_to",
                "type": "text",
                "instructions": "",
                "required": 0,
                "conditional_logic": 0,
                "wrapper": {
                    "width": "33.333333333",
                    "class": "",
                    "id": ""
                },
                "default_value": "",
                "placeholder": "",
                "prepend": "",
                "append": "",
                "maxlength": "",
                "readonly": 0,
                "disabled": 0
            },
            {
                "key": "field_5750f95490684",
                "label": "Thursday",
                "name": "thursday",
                "type": "checkbox",
                "instructions": "",
                "required": 0,
                "conditional_logic": 0,
                "wrapper": {
                    "width": "33.333333333",
                    "class": "",
                    "id": ""
                },
                "choices": {
                    "1": "Open"
                },
                "default_value": [

                ],
                "layout": "vertical",
                "toggle": 0
            },
            {
                "key": "field_5750f95990685",
                "label": "From",
                "name": "thursday_from",
                "type": "text",
                "instructions": "",
                "required": 0,
                "conditional_logic": 0,
                "wrapper": {
                    "width": "33.333333333",
                    "class": "",
                    "id": ""
                },
                "default_value": "",
                "placeholder": "",
                "prepend": "",
                "append": "",
                "maxlength": "",
                "readonly": 0,
                "disabled": 0
            },
            {
                "key": "field_5750f95e90686",
                "label": "To",
                "name": "thursday_to",
                "type": "text",
                "instructions": "",
                "required": 0,
                "conditional_logic": 0,
                "wrapper": {
                    "width": "33.333333333",
                    "class": "",
                    "id": ""
                },
                "default_value": "",
                "placeholder": "",
                "prepend": "",
                "append": "",
                "maxlength": "",
                "readonly": 0,
                "disabled": 0
            },
            {
                "key": "field_5750f9a2bc585",
                "label": "Friday",
                "name": "friday",
                "type": "checkbox",
                "instructions": "",
                "required": 0,
                "conditional_logic": 0,
                "wrapper": {
                    "width": "33.333333333",
                    "class": "",
                    "id": ""
                },
                "choices": {
                    "1": "Open"
                },
                "default_value": [

                ],
                "layout": "vertical",
                "toggle": 0
            },
            {
                "key": "field_5750f9a7bc586",
                "label": "From",
                "name": "friday_from",
                "type": "text",
                "instructions": "",
                "required": 0,
                "conditional_logic": 0,
                "wrapper": {
                    "width": "33.333333333",
                    "class": "",
                    "id": ""
                },
                "default_value": "",
                "placeholder": "",
                "prepend": "",
                "append": "",
                "maxlength": "",
                "readonly": 0,
                "disabled": 0
            },
            {
                "key": "field_5750f9abbc587",
                "label": "To",
                "name": "friday_to",
                "type": "text",
                "instructions": "",
                "required": 0,
                "conditional_logic": 0,
                "wrapper": {
                    "width": "33.333333333",
                    "class": "",
                    "id": ""
                },
                "default_value": "",
                "placeholder": "",
                "prepend": "",
                "append": "",
                "maxlength": "",
                "readonly": 0,
                "disabled": 0
            },
            {
                "key": "field_5750fa2026e2b",
                "label": "Saturday",
                "name": "saturday",
                "type": "checkbox",
                "instructions": "",
                "required": 0,
                "conditional_logic": 0,
                "wrapper": {
                    "width": "33.333333333",
                    "class": "",
                    "id": ""
                },
                "choices": {
                    "1": "Open"
                },
                "default_value": [

                ],
                "layout": "vertical",
                "toggle": 0
            },
            {
                "key": "field_5750fa2526e2c",
                "label": "From",
                "name": "saturday_from",
                "type": "text",
                "instructions": "",
                "required": 0,
                "conditional_logic": 0,
                "wrapper": {
                    "width": "33.333333333",
                    "class": "",
                    "id": ""
                },
                "default_value": "",
                "placeholder": "",
                "prepend": "",
                "append": "",
                "maxlength": "",
                "readonly": 0,
                "disabled": 0
            },
            {
                "key": "field_5750fa2926e2d",
                "label": "To",
                "name": "saturday_to",
                "type": "text",
                "instructions": "",
                "required": 0,
                "conditional_logic": 0,
                "wrapper": {
                    "width": "33.333333333",
                    "class": "",
                    "id": ""
                },
                "default_value": "",
                "placeholder": "",
                "prepend": "",
                "append": "",
                "maxlength": "",
                "readonly": 0,
                "disabled": 0
            },
            {
                "key": "field_5750fa6326e2f",
                "label": "Sunday",
                "name": "sunday",
                "type": "checkbox",
                "instructions": "",
                "required": 0,
                "conditional_logic": 0,
                "wrapper": {
                    "width": "33.333333333",
                    "class": "",
                    "id": ""
                },
                "choices": {
                    "1": "Open"
                },
                "default_value": [

                ],
                "layout": "vertical",
                "toggle": 0
            },
            {
                "key": "field_5750fa6726e30",
                "label": "From",
                "name": "sunday_from",
                "type": "text",
                "instructions": "",
                "required": 0,
                "conditional_logic": 0,
                "wrapper": {
                    "width": "33.333333333",
                    "class": "",
                    "id": ""
                },
                "default_value": "",
                "placeholder": "",
                "prepend": "",
                "append": "",
                "maxlength": "",
                "readonly": 0,
                "disabled": 0
            },
            {
                "key": "field_5750fa6a26e31",
                "label": "To",
                "name": "sunday_to",
                "type": "text",
                "instructions": "",
                "required": 0,
                "conditional_logic": 0,
                "wrapper": {
                    "width": "33.333333333",
                    "class": "",
                    "id": ""
                },
                "default_value": "",
                "placeholder": "",
                "prepend": "",
                "append": "",
                "maxlength": "",
                "readonly": 0,
                "disabled": 0
            }
        ],
        "location": [
            [
                {
                    "param": "post_type",
                    "operator": "==",
                    "value": "attractions"
                }
            ]
        ],
        "menu_order": 0,
        "position": "side",
        "style": "default",
        "label_placement": "top",
        "instruction_placement": "label",
        "hide_on_screen": "",
        "active": 1,
        "description": ""
    },
    {
        "key": "group_5750f1e54ac1b",
        "title": "Location",
        "fields": [
            {
                "key": "field_5750f1e5661f3",
                "label": "Address",
                "name": "address",
                "type": "text",
                "instructions": "",
                "required": 0,
                "conditional_logic": 0,
                "wrapper": {
                    "width": "",
                    "class": "",
                    "id": ""
                },
                "default_value": "",
                "placeholder": "",
                "prepend": "",
                "append": "",
                "maxlength": "",
                "readonly": 0,
                "disabled": 0
            },
            {
                "key": "field_5750f1e5665c7",
                "label": "City",
                "name": "city",
                "type": "post_object",
                "instructions": "",
                "required": 0,
                "conditional_logic": 0,
                "wrapper": {
                    "width": 50,
                    "class": "",
                    "id": ""
                },
                "post_type": [
                    "cities"
                ],
                "taxonomy": [

                ],
                "allow_null": 0,
                "multiple": 0,
                "return_format": "id",
                "ui": 1
            },
            {
                "key": "field_5750f1e5669ec",
                "label": "Zip",
                "name": "zip",
                "type": "text",
                "instructions": "",
                "required": 0,
                "conditional_logic": 0,
                "wrapper": {
                    "width": 50,
                    "class": "",
                    "id": ""
                },
                "default_value": "",
                "placeholder": "",
                "prepend": "FL",
                "append": "",
                "maxlength": "",
                "readonly": 0,
                "disabled": 0
            }
        ],
        "location": [
            [
                {
                    "param": "post_type",
                    "operator": "==",
                    "value": "attractions"
                }
            ]
        ],
        "menu_order": 0,
        "position": "side",
        "style": "default",
        "label_placement": "top",
        "instruction_placement": "label",
        "hide_on_screen": "",
        "active": 1,
        "description": ""
    },
    {
        "key": "group_574b6c8327793",
        "title": "Short Description",
        "fields": [
            {
                "key": "field_574b6cc9e0303",
                "label": "Short Description",
                "name": "short_description",
                "type": "textarea",
                "instructions": "",
                "required": 0,
                "conditional_logic": 0,
                "wrapper": {
                    "width": "",
                    "class": "",
                    "id": ""
                },
                "default_value": "",
                "placeholder": "",
                "maxlength": "",
                "rows": 4,
                "new_lines": "",
                "readonly": 0,
                "disabled": 0
            }
        ],
        "location": [
            [
                {
                    "param": "post_type",
                    "operator": "==",
                    "value": "cities"
                }
            ],
            [
                {
                    "param": "post_type",
                    "operator": "==",
                    "value": "attractions"
                }
            ]
        ],
        "menu_order": 0,
        "position": "normal",
        "style": "default",
        "label_placement": "top",
        "instruction_placement": "label",
        "hide_on_screen": "",
        "active": 1,
        "description": ""
    }
]